…
Don’t belong to the genre “Drama”?

Were filmed after the year 2000?

Have a rating of 4.5 or greater?

Were filmed in 1999 or 2000?

Correspond to the movie “Little Women”?

Have more than 4.5 stars, and were released before 1995?

filter(movieLens, genres == "Drama")

## # A tibble: 7,757 x 7
##    movieId title                             year genres userId rating timestamp
##      <int> <chr>                            <int> <fct>   <int>  <dbl>     <int>
##  1      31 Dangerous Minds                   1995 Drama       1    2.5    1.26e9
##  2    1172 Cinema Paradiso (Nuovo cinema P…  1989 Drama       1    4      1.26e9
##  3    1293 Gandhi                            1982 Drama       1    2      1.26e9
##  4      62 Mr. Holland's Opus                1995 Drama       2    3      8.35e8
##  5     261 Little Women                      1994 Drama       2    4      8.35e8
##  6     300 Quiz Show                         1994 Drama       2    3      8.35e8
##  7     508 Philadelphia                      1993 Drama       2    4      8.35e8
##  8     537 Sirens                            1994 Drama       2    4      8.35e8
##  9    2702 Summer of Sam                     1999 Drama       3    3.5    1.30e9
## 10    3949 Requiem for a Dream               2000 Drama       3    5      1.30e9
## # … with 7,747 more rows

filter(movieLens, !genres == "Drama")

## # A tibble: 92,247 x 7
##    movieId title                year genres              userId rating timestamp
##      <int> <chr>               <int> <fct>                <int>  <dbl>     <int>
##  1    1029 Dumbo                1941 Animation|Children…      1    3      1.26e9
##  2    1061 Sleepers             1996 Thriller                 1    3      1.26e9
##  3    1129 Escape from New Yo…  1981 Action|Adventure|S…      1    2      1.26e9
##  4    1263 Deer Hunter, The     1978 Drama|War                1    2      1.26e9
##  5    1287 Ben-Hur              1959 Action|Adventure|D…      1    2      1.26e9
##  6    1339 Dracula (Bram Stok…  1992 Fantasy|Horror|Rom…      1    3.5    1.26e9
##  7    1343 Cape Fear            1991 Thriller                 1    2      1.26e9
##  8    1371 Star Trek: The Mot…  1979 Adventure|Sci-Fi         1    2.5    1.26e9
##  9    1405 Beavis and Butt-He…  1996 Adventure|Animatio…      1    1      1.26e9
## 10    1953 French Connection,…  1971 Action|Crime|Thril…      1    4      1.26e9
## # … with 92,237 more rows

filter(movieLens, year >= 2000)

## # A tibble: 29,535 x 7
##    movieId title                  year genres            userId rating timestamp
##      <int> <chr>                 <int> <fct>              <int>  <dbl>     <int>
##  1    3510 Frequency              2000 Drama|Thriller         3    4      1.30e9
##  2    3949 Requiem for a Dream    2000 Drama                  3    5      1.30e9
##  3    5349 Spider-Man             2002 Action|Adventure…      3    3      1.30e9
##  4    5669 Bowling for Columbine  2002 Documentary            3    3.5    1.30e9
##  5    6377 Finding Nemo           2003 Adventure|Animat…      3    3      1.30e9
##  6    7153 Lord of the Rings: T…  2003 Action|Adventure…      3    2.5    1.30e9
##  7    7361 Eternal Sunshine of …  2004 Drama|Romance|Sc…      3    3      1.30e9
##  8    8622 Fahrenheit 9/11        2004 Documentary            3    3.5    1.30e9
##  9    8636 Spider-Man 2           2004 Action|Adventure…      3    3      1.30e9
## 10   27369 Daria: Is It Fall Ye…  2000 Animation|Comedy       3    3.5    1.30e9
## # … with 29,525 more rows

filter(movieLens, rating < 4.5)

## # A tibble: 77,186 x 7
##    movieId title                  year genres            userId rating timestamp
##      <int> <chr>                 <int> <fct>              <int>  <dbl>     <int>
##  1      31 Dangerous Minds        1995 Drama                  1    2.5    1.26e9
##  2    1029 Dumbo                  1941 Animation|Childr…      1    3      1.26e9
##  3    1061 Sleepers               1996 Thriller               1    3      1.26e9
##  4    1129 Escape from New York   1981 Action|Adventure…      1    2      1.26e9
##  5    1172 Cinema Paradiso (Nuo…  1989 Drama                  1    4      1.26e9
##  6    1263 Deer Hunter, The       1978 Drama|War              1    2      1.26e9
##  7    1287 Ben-Hur                1959 Action|Adventure…      1    2      1.26e9
##  8    1293 Gandhi                 1982 Drama                  1    2      1.26e9
##  9    1339 Dracula (Bram Stoker…  1992 Fantasy|Horror|R…      1    3.5    1.26e9
## 10    1343 Cape Fear              1991 Thriller               1    2      1.26e9
## # … with 77,176 more rows

filter(movieLens, year == 1999 | month == 2000)

## Error: Problem with `filter()` input `..1`.
## x object 'month' not found
## ℹ Input `..1` is `year == 1999 | month == 2000`.

filter(movieLens, title %in% "Little Women")

## # A tibble: 54 x 7
##    movieId title         year genres userId rating  timestamp
##      <int> <chr>        <int> <fct>   <int>  <dbl>      <int>
##  1     261 Little Women  1994 Drama       2    4    835355681
##  2     261 Little Women  1994 Drama      19    4    855194216
##  3     261 Little Women  1994 Drama      30    4    951008613
##  4     261 Little Women  1994 Drama      32    4    834828302
##  5     261 Little Women  1994 Drama      36    4    847057120
##  6     261 Little Women  1994 Drama      85    1    837513012
##  7     261 Little Women  1994 Drama      86    3    848161454
##  8     261 Little Women  1994 Drama      88    3.5 1239755456
##  9     261 Little Women  1994 Drama      95    5   1016317793
## 10     261 Little Women  1994 Drama     102    3    957894400
## # … with 44 more rows

filter(movieLens, rating > 4.5, year < 1995)

## # A tibble: 8,386 x 7
##    movieId title                  year genres            userId rating timestamp
##      <int> <chr>                 <int> <fct>              <int>  <dbl>     <int>
##  1     265 Like Water for Choco…  1992 Drama|Fantasy|Ro…      2      5    8.35e8
##  2     266 Legends of the Fall    1994 Drama|Romance|Wa…      2      5    8.35e8
##  3     551 Nightmare Before Chr…  1993 Animation|Childr…      2      5    8.35e8
##  4     589 Terminator 2: Judgme…  1991 Action|Sci-Fi          2      5    8.35e8
##  5     590 Dances with Wolves     1990 Adventure|Drama|…      2      5    8.35e8
##  6     592 Batman                 1989 Action|Crime|Thr…      2      5    8.35e8
##  7     318 Shawshank Redemption…  1994 Crime|Drama            3      5    1.30e9
##  8     356 Forrest Gump           1994 Comedy|Drama|Rom…      3      5    1.30e9
##  9    1197 Princess Bride, The    1987 Action|Adventure…      3      5    1.30e9
## 10     260 Star Wars: Episode I…  1977 Action|Adventure…      4      5    9.50e8
## # … with 8,376 more rows

Exercise 3

While filtering for all movies that do not belong to the genre drama above, I noticed something interesting. I want to filter for the same thing again, this time selecting variables title and genres first, and then everything else. Hint: there is a function to select “everything else”…

### ERROR HERE ###
movieLens %>%
  filter(!genres == "Drama") %>%
  select(title, genres, year, rating, timestamp)

## # A tibble: 92,247 x 5
##    title                      genres                       year rating timestamp
##    <chr>                      <fct>                       <int>  <dbl>     <int>
##  1 Dumbo                      Animation|Children|Drama|M…  1941    3      1.26e9
##  2 Sleepers                   Thriller                     1996    3      1.26e9
##  3 Escape from New York       Action|Adventure|Sci-Fi|Th…  1981    2      1.26e9
##  4 Deer Hunter, The           Drama|War                    1978    2      1.26e9
##  5 Ben-Hur                    Action|Adventure|Drama       1959    2      1.26e9
##  6 Dracula (Bram Stoker's Dr… Fantasy|Horror|Romance|Thr…  1992    3.5    1.26e9
##  7 Cape Fear                  Thriller                     1991    2      1.26e9
##  8 Star Trek: The Motion Pic… Adventure|Sci-Fi             1979    2.5    1.26e9
##  9 Beavis and Butt-Head Do A… Adventure|Animation|Comedy…  1996    1      1.26e9
## 10 French Connection, The     Action|Crime|Thriller        1971    4      1.26e9
## # … with 92,237 more rows

Notice that some movies appear to have several genres, instead of a single one. If we filter for the movie “Dumbo” and select the genres column, we see that “Animation|Children|Drama|Musical” appear as genres.

movieLens %>%
  title == "Dumbo" %>%
  select(genres)

## Error in title(.): plot.new has not been called yet

This means that when we filter for “Drama”, we are only filtering for those movies that are classified as exclusively Drama. What if we want to see all movies that contain “Drama” in their genres, even if they are a Romance-Drama, or a Comedy-Drama? Here is a handy, error-free expression that can help you do that. No errors, only for learning.

movieLens %>%
  filter(str_detect(genres, "Drama"))

## # A tibble: 44,752 x 7
##    movieId title                  year genres            userId rating timestamp
##      <int> <chr>                 <int> <fct>              <int>  <dbl>     <int>
##  1      31 Dangerous Minds        1995 Drama                  1    2.5    1.26e9
##  2    1029 Dumbo                  1941 Animation|Childr…      1    3      1.26e9
##  3    1172 Cinema Paradiso (Nuo…  1989 Drama                  1    4      1.26e9
##  4    1263 Deer Hunter, The       1978 Drama|War              1    2      1.26e9
##  5    1287 Ben-Hur                1959 Action|Adventure…      1    2      1.26e9
##  6    1293 Gandhi                 1982 Drama                  1    2      1.26e9
##  7    2455 Fly, The               1986 Drama|Horror|Sci…      1    2.5    1.26e9
##  8      17 Sense and Sensibility  1995 Drama|Romance          2    5      8.35e8
##  9      52 Mighty Aphrodite       1995 Comedy|Drama|Rom…      2    3      8.35e8
## 10      62 Mr. Holland's Opus     1995 Drama                  2    3      8.35e8
## # … with 44,742 more rows

Now that you know that, select (and filter, where required!):

All colums except those from userId to timestamp (inclusive)

Columns year, title, and genres (in that order) only for movies classified exclusively as “Romance”

Columns rating, title, and year (in that order) followed by everything else (all other columns), only for movies containing the genre “Comedy”

### ERROR HERE ###
select(movieLens, -(userId:timestamp))

## # A tibble: 100,004 x 4
##    movieId title                               year genres                      
##      <int> <chr>                              <int> <fct>                       
##  1      31 Dangerous Minds                     1995 Drama                       
##  2    1029 Dumbo                               1941 Animation|Children|Drama|Mu…
##  3    1061 Sleepers                            1996 Thriller                    
##  4    1129 Escape from New York                1981 Action|Adventure|Sci-Fi|Thr…
##  5    1172 Cinema Paradiso (Nuovo cinema Par…  1989 Drama                       
##  6    1263 Deer Hunter, The                    1978 Drama|War                   
##  7    1287 Ben-Hur                             1959 Action|Adventure|Drama      
##  8    1293 Gandhi                              1982 Drama                       
##  9    1339 Dracula (Bram Stoker's Dracula)     1992 Fantasy|Horror|Romance|Thri…
## 10    1343 Cape Fear                           1991 Thriller                    
## # … with 99,994 more rows

movieLens %>%
  filter(genres == "Romance") %>%
  select(year, title, genres)

## # A tibble: 63 x 3
##     year title                    genres 
##    <int> <chr>                    <fct>  
##  1  1998 Meet Joe Black           Romance
##  2  1998 Meet Joe Black           Romance
##  3  1984 Against All Odds         Romance
##  4  1988 Everybody's All-American Romance
##  5  1998 Meet Joe Black           Romance
##  6  1998 Meet Joe Black           Romance
##  7  1998 Meet Joe Black           Romance
##  8  2004 Raise Your Voice         Romance
##  9  1998 Meet Joe Black           Romance
## 10  1998 Meet Joe Black           Romance
## # … with 53 more rows
…
movieLens <-
movieLens %>%
  rename(user_id == userId,
         movie_id == movieId)

## Error: object 'user_id' not found

As you already know, mutate() defines and inserts new variables into a tibble. There is another mystery function that you’ve seen already that adds the new variable, and drops existing ones. I wanted to create an average_rating column that takes the mean(rating) across all entries, and I only want to see that variable (i.e drop all others!) but I forgot what that mystery function is. Can you remember?

### ERROR HERE ### 
mutate(movieLens,
       average_rating = mean(rating))

## # A tibble: 100,004 x 8
##    movieId title         year genres      userId rating timestamp average_rating
##      <int> <chr>        <int> <fct>        <int>  <dbl>     <int>          <dbl>
##  1      31 Dangerous M…  1995 Drama            1    2.5    1.26e9           3.54
##  2    1029 Dumbo         1941 Animation|…      1    3      1.26e9           3.54
##  3    1061 Sleepers      1996 Thriller         1    3      1.26e9           3.54
##  4    1129 Escape from…  1981 Action|Adv…      1    2      1.26e9           3.54
##  5    1172 Cinema Para…  1989 Drama            1    4      1.26e9           3.54
##  6    1263 Deer Hunter…  1978 Drama|War        1    2      1.26e9           3.54
##  7    1287 Ben-Hur       1959 Action|Adv…      1    2      1.26e9           3.54
##  8    1293 Gandhi        1982 Drama            1    2      1.26e9           3.54
##  9    1339 Dracula (Br…  1992 Fantasy|Ho…      1    3.5    1.26e9           3.54
## 10    1343 Cape Fear     1991 Thriller         1    2      1.26e9           3.54
## # … with 99,994 more rows

Exercise 5

I’m interested in arranging movies from the year 1998 by their descending rating. Then, I would like to rearrange the columns to show rating followed by title, and then followed by everything else.

movieLens %>%
  filter(year == 1998) %>%
  arrange(desc(rating)) %>%
  select(rating, title, everything())

## # A tibble: 4,019 x 7
##    rating title              movieId  year genres               userId timestamp
##     <dbl> <chr>                <int> <int> <fct>                 <int>     <int>
##  1      5 Wedding Singer, T…    1777  1998 Comedy|Romance            8    1.15e9
##  2      5 American History X    2329  1998 Crime|Drama               8    1.15e9
##  3      5 Truman Show, The      1682  1998 Comedy|Drama|Sci-Fi       9    9.39e8
##  4      5 There's Something…    1923  1998 Comedy|Romance           10    9.43e8
##  5      5 Out of Sight          1912  1998 Comedy|Crime|Drama|…     15    1.03e9
##  6      5 Rushmore              2395  1998 Comedy|Drama             15    9.98e8
##  7      5 Fear and Loathing…    1884  1998 Adventure|Comedy|Dr…     17    1.13e9
##  8      5 Pi                    1921  1998 Drama|Sci-Fi|Thrill…     17    1.13e9
##  9      5 Following             2579  1998 Crime|Mystery|Thril…     17    1.13e9
## 10      5 Sliding Doors         1680  1998 Drama|Romance            20    1.22e9
## # … with 4,009 more rows

Instead of filtering to a specific year, group the movies by year, and then arrange by ascending rating. Lastly, select only the year, title, and rating, in that order.

Hint: Grouped arrange needs one more argument…

movieLens %>%
  group_by(year) %>%
  arrange(rating) %>%
  select(year:rating)

## # A tibble: 100,004 x 4
## # Groups:   year [104]
##     year genres                                      userId rating
##    <int> <fct>                                        <int>  <dbl>
##  1  1998 Drama|Sci-Fi|Thriller                            6    0.5
##  2  1996 Drama                                            8    0.5
##  3  1996 Action|Comedy|Horror|Thriller                   15    0.5
##  4  1995 Action|Adventure|Mystery|Sci-Fi                 15    0.5
##  5  1994 Children|Comedy|Fantasy                         15    0.5
##  6  1993 Action|Adventure|Comedy|Fantasy                 15    0.5
##  7  1992 Adventure|Animation|Children|Comedy|Musical     15    0.5
##  8  1996 Action|Drama|Thriller                           15    0.5
##  9  1996 Action|Comedy|Sci-Fi                            15    0.5
## 10  1998 Drama|Romance                                   15    0.5
## # … with 99,994 more rows

Exercise 6

Alone, tally() is a short form of summarise(). count() is short-hand for group_by() and tally().

Each entry of the movieLens table corresponds to a movie rating by a user. Therefore, if more than one user rated the same movie, there will be several entries for the same movie. I want to find out how many times each movie has been reviewed, or in other words, how many times each movie title appears in the dataset.

movieLens %>%
  group_by(title) %>%
  tally()

## # A tibble: 8,832 x 2
##    title                                n
##    <chr>                            <int>
##  1 ¡Three Amigos!                      31
##  2 ...And God Spoke                     1
##  3 ...And Justice for All              13
##  4 'burbs, The                         19
##  5 'Hellboy': The Seeds of Creation     1
##  6 'Neath the Arizona Skies             1
##  7 'night Mother                        3
##  8 'Round Midnight                      2
##  9 'Salem's Lot                         1
## 10 'Til There Was You                   4
## # … with 8,822 more rows
…
## Error in n(.): unused argument (.)

Exercise 7

Calculate the mean rating by title and store it in a new variable avg_rating.

movieLens %>%
  group_by(title) %>%
  summarize(avg_rating = mean(rating))

## `summarise()` ungrouping output (override with `.groups` argument)

## # A tibble: 8,832 x 2
##    title                            avg_rating
##    <chr>                                 <dbl>
##  1 ¡Three Amigos!                         3.26
##  2 ...And God Spoke                       1   
##  3 ...And Justice for All                 3.69
##  4 'burbs, The                            3.05
##  5 'Hellboy': The Seeds of Creation       2   
##  6 'Neath the Arizona Skies               0.5 
##  7 'night Mother                          5   
##  8 'Round Midnight                        2.25
##  9 'Salem's Lot                           3.5 
## 10 'Til There Was You                     2.62
## # … with 8,822 more rows

Calculate the mean rating by year and store it in a new variable avg_rating.

movieLens %>%
  group_by(year) %>%
  summarize(avg_rating = mean(rating))

## `summarise()` ungrouping output (override with `.groups` argument)

## # A tibble: 104 x 2
##     year avg_rating
##    <int>      <dbl>
##  1  1902       4.33
##  2  1915       3   
##  3  1916       3.5 
##  4  1917       4.25
##  5  1918       4.25
##  6  1919       3   
##  7  1920       3.7 
##  8  1921       4.42
##  9  1922       3.80
## 10  1923       4.17
## # … with 94 more rows
…
