…
Note: We encourage you to use the ones in the datateachr package, but if you have a dataset that you’d really like to use, you can include it here. But, please check with a member of the teaching team to see whether the dataset is of appropriate complexity. Also, include a brief description of the dataset here to help the teaching team understand your data.

1: CHOICE_1_HERE
2: CHOICE_2_HERE
3: CHOICE_3_HERE
4: CHOICE_4_HERE

1.2 One way to narrowing down your selection is to explore the datasets. Use your knowledge of dplyr to find out at least 3 attributes about each of these datasets (an attribute is something such as number of rows, variables, class type…). The goal here is to have an idea of what the data looks like.

Hint: This is one of those times when you should think about the cleanliness of your analysis. I added a single code chunk for you, but do you want to use more than one? Would you like to write more comments outside of the code chunk?

### EXPLORE HERE ###
steam_games

## # A tibble: 40,833 x 21
##       id url   types name  desc_snippet recent_reviews all_reviews release_date
##    <dbl> <chr> <chr> <chr> <chr>        <chr>          <chr>       <chr>       
##  1     1 http… app   DOOM  Now include… Very Positive… Very Posit… May 12, 2016
##  2     2 http… app   PLAY… PLAYERUNKNO… Mixed,(6,214)… Mixed,(836… Dec 21, 2017
##  3     3 http… app   BATT… Take comman… Mixed,(166),-… Mostly Pos… Apr 24, 2018
##  4     4 http… app   DayZ  The post-so… Mixed,(932),-… Mixed,(167… Dec 13, 2018
##  5     5 http… app   EVE … EVE Online … Mixed,(287),-… Mostly Pos… May 6, 2003 
##  6     6 http… bund… Gran… Grand Theft… NaN            NaN         NaN         
##  7     7 http… app   Devi… The ultimat… Very Positive… Very Posit… Mar 7, 2019 
##  8     8 http… app   Huma… Human: Fall… Very Positive… Very Posit… Jul 22, 2016
##  9     9 http… app   They… They Are Bi… Very Positive… Very Posit… Dec 12, 2017
## 10    10 http… app   Warh… In a world … <NA>           Mixed,(904… May 31, 2019
## # … with 40,823 more rows, and 13 more variables: developer <chr>,
## #   publisher <chr>, popular_tags <chr>, game_details <chr>, languages <chr>,
## #   achievements <dbl>, genre <chr>, game_description <chr>,
## #   mature_content <chr>, minimum_requirements <chr>,
## #   recommended_requirements <chr>, original_price <dbl>, discount_price <dbl>
…
