…
Nesting the penguins tibble

penguins %>% 
  nest(data = body_mass_g)

## # A tibble: 344 x 8
##    species island bill_length_mm bill_depth_mm flipper_length_… sex    year
##    <fct>   <fct>           <dbl>         <dbl>            <int> <fct> <int>
##  1 Adelie  Torge…           39.1          18.7              181 male   2007
##  2 Adelie  Torge…           39.5          17.4              186 fema…  2007
##  3 Adelie  Torge…           40.3          18                195 fema…  2007
##  4 Adelie  Torge…           NA            NA                 NA <NA>   2007
##  5 Adelie  Torge…           36.7          19.3              193 fema…  2007
##  6 Adelie  Torge…           39.3          20.6              190 male   2007
##  7 Adelie  Torge…           38.9          17.8              181 fema…  2007
##  8 Adelie  Torge…           39.2          19.6              195 male   2007
##  9 Adelie  Torge…           34.1          18.1              193 <NA>   2007
## 10 Adelie  Torge…           42            20.2              190 <NA>   2007
## # … with 334 more rows, and 1 more variable: data <list>

penguins %>% 
  nest(data = body_mass_g) %>% 
  mutate(s = map_dbl(data, ~ sqrt(.x$body_mass_g)))

## # A tibble: 344 x 9
##    species island bill_length_mm bill_depth_mm flipper_length_… sex    year
##    <fct>   <fct>           <dbl>         <dbl>            <int> <fct> <int>
##  1 Adelie  Torge…           39.1          18.7              181 male   2007
##  2 Adelie  Torge…           39.5          17.4              186 fema…  2007
##  3 Adelie  Torge…           40.3          18                195 fema…  2007
##  4 Adelie  Torge…           NA            NA                 NA <NA>   2007
##  5 Adelie  Torge…           36.7          19.3              193 fema…  2007
##  6 Adelie  Torge…           39.3          20.6              190 male   2007
##  7 Adelie  Torge…           38.9          17.8              181 fema…  2007
##  8 Adelie  Torge…           39.2          19.6              195 male   2007
##  9 Adelie  Torge…           34.1          18.1              193 <NA>   2007
## 10 Adelie  Torge…           42            20.2              190 <NA>   2007
## # … with 334 more rows, and 2 more variables: data <list>, s <dbl>

penguins %>% 
  mutate(across(where(is.numeric), ~ sqrt(.x - 10)))

## # A tibble: 344 x 8
##    species island bill_length_mm bill_depth_mm flipper_length_… body_mass_g
##    <fct>   <fct>           <dbl>         <dbl>            <dbl>       <dbl>
##  1 Adelie  Torge…           5.39          2.95             13.1        61.2
##  2 Adelie  Torge…           5.43          2.72             13.3        61.6
##  3 Adelie  Torge…           5.50          2.83             13.6        56.9
##  4 Adelie  Torge…          NA            NA                NA          NA  
##  5 Adelie  Torge…           5.17          3.05             13.5        58.7
##  6 Adelie  Torge…           5.41          3.26             13.4        60.3
##  7 Adelie  Torge…           5.38          2.79             13.1        60.1
##  8 Adelie  Torge…           5.40          3.10             13.6        68.3
##  9 Adelie  Torge…           4.91          2.85             13.5        58.9
## 10 Adelie  Torge…           5.66          3.19             13.4        65.1
## # … with 334 more rows, and 2 more variables: sex <fct>, year <dbl>
…
Make tibble:

(dat <- tibble(character = got_chars))

## # A tibble: 30 x 1
##    character        
##    <list>           
##  1 <named list [18]>
##  2 <named list [18]>
##  3 <named list [18]>
##  4 <named list [18]>
##  5 <named list [18]>
##  6 <named list [18]>
##  7 <named list [18]>
##  8 <named list [18]>
##  9 <named list [18]>
## 10 <named list [18]>
## # … with 20 more rows

unnest_wider() is what we want, not unnest_longer():

dat %>% 
  unnest_wider(character)

## # A tibble: 30 x 18
##    url      id name  gender culture born  died  alive titles aliases father
##    <chr> <int> <chr> <chr>  <chr>   <chr> <chr> <lgl> <list> <list>  <chr> 
##  1 http…  1022 Theo… Male   "Ironb… "In … ""    TRUE  <chr … <chr [… ""    
##  2 http…  1052 Tyri… Male   ""      "In … ""    TRUE  <chr … <chr [… ""    
##  3 http…  1074 Vict… Male   "Ironb… "In … ""    TRUE  <chr … <chr [… ""    
##  4 http…  1109 Will  Male   ""      ""    "In … FALSE <chr … <chr [… ""    
##  5 http…  1166 Areo… Male   "Norvo… "In … ""    TRUE  <chr … <chr [… ""    
##  6 http…  1267 Chett Male   ""      "At … "In … FALSE <chr … <chr [… ""    
##  7 http…  1295 Cres… Male   ""      "In … "In … FALSE <chr … <chr [… ""    
##  8 http…   130 Aria… Female "Dorni… "In … ""    TRUE  <chr … <chr [… ""    
##  9 http…  1303 Daen… Female "Valyr… "In … ""    TRUE  <chr … <chr [… ""    
## 10 http…  1319 Davo… Male   "Weste… "In … ""    TRUE  <chr … <chr [… ""    
## # … with 20 more rows, and 7 more variables: mother <chr>, spouse <chr>,
## #   allegiances <list>, books <list>, povBooks <list>, tvSeries <list>,
## #   playedBy <list>

dat %>% 
  unnest_longer(character)

## # A tibble: 540 x 2
##    character    character_id
##    <named list> <chr>       
##  1 <chr [1]>    url         
##  2 <int [1]>    id          
##  3 <chr [1]>    name        
##  4 <chr [1]>    gender      
##  5 <chr [1]>    culture     
##  6 <chr [1]>    born        
##  7 <chr [1]>    died        
##  8 <lgl [1]>    alive       
##  9 <chr [3]>    titles      
## 10 <chr [4]>    aliases     
## # … with 530 more rows
