…
Now we know that no cases were entered twice, and each case corresponds to a different patient.

A little bit of basic pre-processing

We know from the data dictionary that height is measured in inches. We can also sort of figure that out by looking at the range of the height variable in the rows of the data set above.

In Canada, we are pretty equally used to imperial and metric height measurements. Let’s transform height to be in cm by multiplying by 2.54, and change the variable name to height_cm.

Exercise 3

(fev_tbl <- fev_tbl %>% mutate(height = height*2.54) %>% 
  rename(height_cm = height))

## # A tibble: 654 × 7
##    seqnbr subjid   age   fev height_cm sex    smoke
##     <int>  <int> <int> <dbl>     <dbl> <fct>  <fct>
##  1      1    301     9  1.71      145. female no   
##  2      2    451     8  1.72      171. female no   
##  3      3    501     7  1.72      138. female no   
##  4      4    642     9  1.56      135. male   no   
##  5      5    901     9  1.90      145. male   no   
##  6      6   1701     8  2.34      155. female no   
##  7      7   1752     6  1.92      147. female no   
##  8      8   1753     6  1.42      142. female no   
##  9      9   1901     8  1.99      149. female no   
## 10     10   1951     9  1.94      152. female no   
## # ℹ 644 more rows
…
Something’s a little odd about these summaries. Remember: this is a smoking study on children.

Why would a 3 year old be enrolled in a smoking study?

Why would a 19 year old be enrolled in a study on children?

Exercise 5

I’m now a bit worried: what’s the youngest patient who smokes in this dataset?

fev_tbl %>% filter(smoke == "yes") %>% arrange(age)

## # A tibble: 65 × 7
##    seqnbr subjid   age   fev height_cm sex    smoke
##     <int>  <int> <int> <dbl>     <dbl> <fct>  <fct>
##  1    191  45241     9  1.95      147. male   yes  
##  2    388  16551    10  2.39      168. female yes  
##  3    441  30052    10  3.41      168. female yes  
##  4    446  31502    10  2.98      160. female yes  
##  5    518  50301    10  3.50      173. male   yes  
##  6    574  72552    10  3.04      165. female yes  
##  7    369  11601    11  1.69      152. male   yes  
##  8    456  34201    11  3.17      159. female yes  
##  9    496  45201    11  3.10      163. female yes  
## 10    523  51201    11  2.95      170. female yes  
## # ℹ 55 more rows
…
