…
tidy() only works if it makes sense to talk about model “components”.

augment()

Use the augment() function to make predictions on a dataset by augmenting predictions as a new column to your data. By default, augment() uses the dataset that was used to fit the model.

augment(my_lm) %>% 
  print(n = 5)

## # A tibble: 32 x 9
##   .rownames           mpg    wt .fitted .resid .std.resid   .hat .sigma  .cooksd
##   <chr>             <dbl> <dbl>   <dbl>  <dbl>      <dbl>  <dbl>  <dbl>    <dbl>
## 1 Mazda RX4          21    2.62    23.3 -2.28     -0.766  0.0433   3.07  1.33e-2
## 2 Mazda RX4 Wag      21    2.88    21.9 -0.920    -0.307  0.0352   3.09  1.72e-3
## 3 Datsun 710         22.8  2.32    24.9 -2.09     -0.706  0.0584   3.07  1.54e-2
## 4 Hornet 4 Drive     21.4  3.22    20.1  1.30      0.433  0.0313   3.09  3.02e-3
## 5 Hornet Sportabout  18.7  3.44    18.9 -0.200    -0.0668 0.0329   3.10  7.60e-5
## # … with 27 more rows
…
