…
Add continent data to population from gapminder

# create a data frame listing continent for every country
continent <- gapminder %>%
  select(country, continent) %>% 
  distinct()
# add continent data to population data frame
population <- left_join(population, continent, by = "country")
# see how many countries are missing continent data by continent
population %>% 
  group_by(year) %>% 
  summarise(missing_continent = sum(is.na(continent)))

## # A tibble: 93 × 2
##     year missing_continent
##    <dbl>             <int>
##  1  2008                61
##  2  2009                61
##  3  2010                61
##  4  2011                61
##  5  2012                61
##  6  2013                61
##  7  2014                61
##  8  2015                61
##  9  2016                61
## 10  2017                61
## # … with 83 more rows
…
