…
And, it’s sometimes useful to scale a variable to have mean 0 and variance 1. We’ll do both:

gapminder %>% 
  mutate(gdpPercap_scaled = (log(gdpPercap) - mean(log(gdpPercap))) / sd(log(gdpPercap)),
         pop_scaled = (log(pop) - mean(log(pop))) / sd(log(pop)))

## # A tibble: 1,704 × 8
##    country     continent  year lifeExp    pop gdpPercap gdpPercap_scaled pop_scaled
##    <fct>       <fct>     <int>   <dbl>  <int>     <dbl>            <dbl>      <dbl>
##  1 Afghanistan Asia       1952    28.8 8.43e6      779.            -1.21      0.113
##  2 Afghanistan Asia       1957    30.3 9.24e6      821.            -1.17      0.170
##  3 Afghanistan Asia       1962    32.0 1.03e7      853.            -1.14      0.236
##  4 Afghanistan Asia       1967    34.0 1.15e7      836.            -1.15      0.309
##  5 Afghanistan Asia       1972    36.1 1.31e7      740.            -1.25      0.387
##  6 Afghanistan Asia       1977    38.4 1.49e7      786.            -1.20      0.467
##  7 Afghanistan Asia       1982    39.9 1.29e7      978.            -1.03      0.377
##  8 Afghanistan Asia       1987    40.8 1.39e7      852.            -1.14      0.423
##  9 Afghanistan Asia       1992    41.7 1.63e7      649.            -1.36      0.525
## 10 Afghanistan Asia       1997    41.8 2.22e7      635.            -1.37      0.717
## # … with 1,694 more rows

gapminder %>% 
  mutate(gdpPercap = (log(gdpPercap) - mean(log(gdpPercap))) / 
           sd(log(gdpPercap)),
         pop = (log(pop) - mean(log(pop))) / sd(log(pop)))

## # A tibble: 1,704 × 6
##    country     continent  year lifeExp   pop gdpPercap
##    <fct>       <fct>     <int>   <dbl> <dbl>     <dbl>
##  1 Afghanistan Asia       1952    28.8 0.113     -1.21
##  2 Afghanistan Asia       1957    30.3 0.170     -1.17
##  3 Afghanistan Asia       1962    32.0 0.236     -1.14
##  4 Afghanistan Asia       1967    34.0 0.309     -1.15
##  5 Afghanistan Asia       1972    36.1 0.387     -1.25
##  6 Afghanistan Asia       1977    38.4 0.467     -1.20
##  7 Afghanistan Asia       1982    39.9 0.377     -1.03
##  8 Afghanistan Asia       1987    40.8 0.423     -1.14
##  9 Afghanistan Asia       1992    41.7 0.525     -1.36
## 10 Afghanistan Asia       1997    41.8 0.717     -1.37
## # … with 1,694 more rows
…
##  [1] -2.0605622 -1.1149624 -0.5618220 -0.1693627  0.1350524  0.3837777
##  [7]  0.5940719  0.7762371  0.9369181  1.0806522

Now we can use the function in our previous dplyr workflow:

gapminder %>% 
  mutate(gdpPercap = my_scale(gdpPercap),
         pop = my_scale(pop))

## # A tibble: 1,704 × 6
##    country     continent  year lifeExp   pop gdpPercap
##    <fct>       <fct>     <int>   <dbl> <dbl>     <dbl>
##  1 Afghanistan Asia       1952    28.8 0.113     -1.21
##  2 Afghanistan Asia       1957    30.3 0.170     -1.17
##  3 Afghanistan Asia       1962    32.0 0.236     -1.14
##  4 Afghanistan Asia       1967    34.0 0.309     -1.15
##  5 Afghanistan Asia       1972    36.1 0.387     -1.25
##  6 Afghanistan Asia       1977    38.4 0.467     -1.20
##  7 Afghanistan Asia       1982    39.9 0.377     -1.03
##  8 Afghanistan Asia       1987    40.8 0.423     -1.14
##  9 Afghanistan Asia       1992    41.7 0.525     -1.36
## 10 Afghanistan Asia       1997    41.8 0.717     -1.37
## # … with 1,694 more rows
…
## Test passed 😀

Testing your functions is a way of recognizing that your data analysis will evolve, and is a way of knowing which of your functions need updating if you make a breaking change in your analysis.

A return to dplyr scoped variants with across()

Let’s try our function applied to multiple columns of the gapminder dataset using dplyr’s across() function.

gapminder %>% 
  mutate(across(c("gdpPercap", "pop"), my_scale))

## # A tibble: 1,704 × 6
##    country     continent  year lifeExp   pop gdpPercap
##    <fct>       <fct>     <int>   <dbl> <dbl>     <dbl>
##  1 Afghanistan Asia       1952    28.8 0.113     -1.21
##  2 Afghanistan Asia       1957    30.3 0.170     -1.17
##  3 Afghanistan Asia       1962    32.0 0.236     -1.14
##  4 Afghanistan Asia       1967    34.0 0.309     -1.15
##  5 Afghanistan Asia       1972    36.1 0.387     -1.25
##  6 Afghanistan Asia       1977    38.4 0.467     -1.20
##  7 Afghanistan Asia       1982    39.9 0.377     -1.03
##  8 Afghanistan Asia       1987    40.8 0.423     -1.14
##  9 Afghanistan Asia       1992    41.7 0.525     -1.36
## 10 Afghanistan Asia       1997    41.8 0.717     -1.37
## # … with 1,694 more rows
…
