…
Functions: broom::augment() and predict()

We can use the predict() or broom::augment() to make predictions from the model (default is to use fitting/training data).

predict(my_lm) %>% 
  head()

##         Mazda RX4     Mazda RX4 Wag        Datsun 710    Hornet 4 Drive 
##          23.28261          21.91977          24.88595          20.10265 
## Hornet Sportabout           Valiant 
##          18.90014          18.79325

augment(my_lm)

## # A tibble: 32 × 9
##    .rownames           mpg    wt .fitted .resid   .hat .sigma   .cooksd .std.resid
##    <chr>             <dbl> <dbl>   <dbl>  <dbl>  <dbl>  <dbl>     <dbl>      <dbl>
##  1 Mazda RX4          21    2.62    23.3 -2.28  0.0433   3.07 0.0133       -0.766 
##  2 Mazda RX4 Wag      21    2.88    21.9 -0.920 0.0352   3.09 0.00172      -0.307 
##  3 Datsun 710         22.8  2.32    24.9 -2.09  0.0584   3.07 0.0154       -0.706 
##  4 Hornet 4 Drive     21.4  3.22    20.1  1.30  0.0313   3.09 0.00302       0.433 
##  5 Hornet Sportabout  18.7  3.44    18.9 -0.200 0.0329   3.10 0.0000760    -0.0668
##  6 Valiant            18.1  3.46    18.8 -0.693 0.0332   3.10 0.000921     -0.231 
##  7 Duster 360         14.3  3.57    18.2 -3.91  0.0354   3.01 0.0313       -1.31  
##  8 Merc 240D          24.4  3.19    20.2  4.16  0.0313   3.00 0.0311        1.39  
##  9 Merc 230           22.8  3.15    20.5  2.35  0.0314   3.07 0.00996       0.784 
## 10 Merc 280           19.2  3.44    18.9  0.300 0.0329   3.10 0.000171      0.100 
## # … with 22 more rows
…
