…
Combine locations and songs to find only the entries that correspond to song titles in the locations dataset.

### ERROR HERE ###
left_join(songs, locations)

## Joining, by = c("title", "artist_name")

## # A tibble: 22 x 5
##    title                 artist_name    year city         release               
##    <chr>                 <chr>         <int> <chr>        <chr>                 
##  1 Corduroy              Pearl Jam      1994 <NA>         <NA>                  
##  2 Grievance             Pearl Jam      2000 Seattle, WA  Binaural              
##  3 Stupidmop             Pearl Jam      1994 Seattle, WA  Vitalogy              
##  4 Present Tense         Pearl Jam      1996 Seattle, WA  No Code               
##  5 MFC                   Pearl Jam      1998 Seattle, WA  Live On Two Legs      
##  6 Lukin                 Pearl Jam      1996 Seattle, WA  Seattle Washington No…
##  7 It's Lulu             The Boo Radl…  1995 Liverpool, … Best Of               
##  8 Sparrow               The Boo Radl…  1992 Liverpool, … Everything's Alright …
##  9 Martin_ Doom! It's S… The Boo Radl…  1995 <NA>         <NA>                  
## 10 Leaves And Sand       The Boo Radl…  1993 <NA>         <NA>                  
## # … with 12 more rows
…
