…
What is the mean of each numeric variable in the penguins dataset in each island? Keep the column names the same.

How many penguins are there in each island? Add this to a column named n.

1.5

mean(c(1, 4, 3, NA), na.rm = TRUE)

## [1] 2.666667

penguins %>% 
  mutate(across(where(is.numeric), mean, na.rm = TRUE, trim = 0.2))

## # A tibble: 344 x 8
##    species island bill_length_mm bill_depth_mm flipper_length_… body_mass_g
##    <fct>   <fct>           <dbl>         <dbl>            <dbl>       <dbl>
##  1 Adelie  Torge…           43.9          17.3             200.       4111.
##  2 Adelie  Torge…           43.9          17.3             200.       4111.
##  3 Adelie  Torge…           43.9          17.3             200.       4111.
##  4 Adelie  Torge…           43.9          17.3             200.       4111.
##  5 Adelie  Torge…           43.9          17.3             200.       4111.
##  6 Adelie  Torge…           43.9          17.3             200.       4111.
##  7 Adelie  Torge…           43.9          17.3             200.       4111.
##  8 Adelie  Torge…           43.9          17.3             200.       4111.
##  9 Adelie  Torge…           43.9          17.3             200.       4111.
## 10 Adelie  Torge…           43.9          17.3             200.       4111.
## # … with 334 more rows, and 2 more variables: sex <fct>, year <dbl>

penguins %>% 
  mutate(across(where(is.numeric), ~ mean(.x, na.rm = TRUE, trim = 0.2)))

## # A tibble: 344 x 8
##    species island bill_length_mm bill_depth_mm flipper_length_… body_mass_g
##    <fct>   <fct>           <dbl>         <dbl>            <dbl>       <dbl>
##  1 Adelie  Torge…           43.9          17.3             200.       4111.
##  2 Adelie  Torge…           43.9          17.3             200.       4111.
##  3 Adelie  Torge…           43.9          17.3             200.       4111.
##  4 Adelie  Torge…           43.9          17.3             200.       4111.
##  5 Adelie  Torge…           43.9          17.3             200.       4111.
##  6 Adelie  Torge…           43.9          17.3             200.       4111.
##  7 Adelie  Torge…           43.9          17.3             200.       4111.
##  8 Adelie  Torge…           43.9          17.3             200.       4111.
##  9 Adelie  Torge…           43.9          17.3             200.       4111.
## 10 Adelie  Torge…           43.9          17.3             200.       4111.
## # … with 334 more rows, and 2 more variables: sex <fct>, year <dbl>

(answer1.5 <- penguins %>%
 mutate(across(where(is.numeric), ~ if_else(is.na(.x), mean(.x, na.rm = T), as.numeric(.x)))))

## # A tibble: 344 x 8
##    species island bill_length_mm bill_depth_mm flipper_length_… body_mass_g
##    <fct>   <fct>           <dbl>         <dbl>            <dbl>       <dbl>
##  1 Adelie  Torge…           39.1          18.7             181        3750 
##  2 Adelie  Torge…           39.5          17.4             186        3800 
##  3 Adelie  Torge…           40.3          18               195        3250 
##  4 Adelie  Torge…           43.9          17.2             201.       4202.
##  5 Adelie  Torge…           36.7          19.3             193        3450 
##  6 Adelie  Torge…           39.3          20.6             190        3650 
##  7 Adelie  Torge…           38.9          17.8             181        3625 
##  8 Adelie  Torge…           39.2          19.6             195        4675 
##  9 Adelie  Torge…           34.1          18.1             193        3475 
## 10 Adelie  Torge…           42            20.2             190        4250 
## # … with 334 more rows, and 2 more variables: sex <fct>, year <dbl>

tidyr Demo

Let’s work with this guestlist dataset.

guestlist

## # A tibble: 30 x 7
##    party name  meal_wedding meal_brunch attendance_wedd… attendance_brun…
##    <dbl> <chr> <chr>        <chr>       <chr>            <chr>           
##  1     1 Somm… PENDING      PENDING     PENDING          PENDING         
##  2     1 Phil… vegetarian   Menu C      CONFIRMED        CONFIRMED       
##  3     1 Blan… chicken      Menu A      CONFIRMED        CONFIRMED       
##  4     1 Emaa… PENDING      PENDING     PENDING          PENDING         
##  5     2 Blai… chicken      Menu C      CONFIRMED        CONFIRMED       
##  6     2 Nige… <NA>         <NA>        CANCELLED        CANCELLED       
##  7     3 Sine… PENDING      PENDING     PENDING          PENDING         
##  8     4 Ayra… vegetarian   Menu B      PENDING          PENDING         
##  9     5 Atla… PENDING      PENDING     PENDING          PENDING         
## 10     5 Denz… fish         Menu B      CONFIRMED        CONFIRMED       
## # … with 20 more rows, and 1 more variable: attendance_golf <chr>
…
`_x` <- 4
`this is a variable` <- 5

2. Who’s PENDING?

Our task: extract all “PENDING” entries, paired with who it is, and what information is pending.

What is a tidy data format for this question? Do the tidying.

guestlist %>% 
  pivot_longer(-c(party, name), names_to = "info", values_to = "status") %>% 
  filter(status == "PENDING")

## # A tibble: 64 x 4
##    party name           info               status 
##    <dbl> <chr>          <chr>              <chr>  
##  1     1 Sommer Medrano meal_wedding       PENDING
##  2     1 Sommer Medrano meal_brunch        PENDING
##  3     1 Sommer Medrano attendance_wedding PENDING
##  4     1 Sommer Medrano attendance_brunch  PENDING
##  5     1 Sommer Medrano attendance_golf    PENDING
##  6     1 Emaan Medrano  meal_wedding       PENDING
##  7     1 Emaan Medrano  meal_brunch        PENDING
##  8     1 Emaan Medrano  attendance_wedding PENDING
##  9     1 Emaan Medrano  attendance_brunch  PENDING
## 10     1 Emaan Medrano  attendance_golf    PENDING
## # … with 54 more rows

Quiz

True or False: it’s possible to lengthen a tibble “all the way” so that it can’t be lengthened anymore.

True or False: To make a scatterplot viewing the relationship of Africa’s GDP per capita vs. Europe’s, use pivot_wider().

dat <- tibble(x = letters)
dat %>% 
  pivot_longer(cols = x) %>% 
  pivot_longer(cols = everything())

## # A tibble: 52 x 2
##    name  value
##    <chr> <chr>
##  1 name  x    
##  2 value a    
##  3 name  x    
##  4 value b    
##  5 name  x    
##  6 value c    
##  7 name  x    
##  8 value d    
##  9 name  x    
## 10 value e    
## # … with 42 more rows
…
## `summarise()` ungrouping output (override with `.groups` argument)

## # A tibble: 1 x 5
##   Africa Americas  Asia Europe Oceania
##    <dbl>    <dbl> <dbl>  <dbl>   <dbl>
## 1  2194.    7136. 7902. 14469.  18622.

3. Relationship between PENDING

What’s the relationship between whether or not a meal is PENDING, and the attendance status? First determine what a tidy format is for this question, then answer the question.

guestlist

## # A tibble: 30 x 7
##    party name  meal_wedding meal_brunch attendance_wedd… attendance_brun…
##    <dbl> <chr> <chr>        <chr>       <chr>            <chr>           
##  1     1 Somm… PENDING      PENDING     PENDING          PENDING         
##  2     1 Phil… vegetarian   Menu C      CONFIRMED        CONFIRMED       
##  3     1 Blan… chicken      Menu A      CONFIRMED        CONFIRMED       
##  4     1 Emaa… PENDING      PENDING     PENDING          PENDING         
##  5     2 Blai… chicken      Menu C      CONFIRMED        CONFIRMED       
##  6     2 Nige… <NA>         <NA>        CANCELLED        CANCELLED       
##  7     3 Sine… PENDING      PENDING     PENDING          PENDING         
##  8     4 Ayra… vegetarian   Menu B      PENDING          PENDING         
##  9     5 Atla… PENDING      PENDING     PENDING          PENDING         
## 10     5 Denz… fish         Menu B      CONFIRMED        CONFIRMED       
## # … with 20 more rows, and 1 more variable: attendance_golf <chr>

guestlist %>% 
  pivot_longer(-c(party, name), names_to = c(".value", "event"), names_sep = "_")

## # A tibble: 90 x 5
##    party name            event   meal       attendance
##    <dbl> <chr>           <chr>   <chr>      <chr>     
##  1     1 Sommer Medrano  wedding PENDING    PENDING   
##  2     1 Sommer Medrano  brunch  PENDING    PENDING   
##  3     1 Sommer Medrano  golf    <NA>       PENDING   
##  4     1 Phillip Medrano wedding vegetarian CONFIRMED 
##  5     1 Phillip Medrano brunch  Menu C     CONFIRMED 
##  6     1 Phillip Medrano golf    <NA>       CONFIRMED 
##  7     1 Blanka Medrano  wedding chicken    CONFIRMED 
##  8     1 Blanka Medrano  brunch  Menu A     CONFIRMED 
##  9     1 Blanka Medrano  golf    <NA>       CONFIRMED 
## 10     1 Emaan Medrano   wedding PENDING    PENDING   
## # … with 80 more rows

4. Split name

Split the guest name into first and last name.

guestlist %>% 
  separate(col = name, into = c("first", "last"), sep = " ")

## # A tibble: 30 x 8
##    party first last  meal_wedding meal_brunch attendance_wedd… attendance_brun…
##    <dbl> <chr> <chr> <chr>        <chr>       <chr>            <chr>           
##  1     1 Somm… Medr… PENDING      PENDING     PENDING          PENDING         
##  2     1 Phil… Medr… vegetarian   Menu C      CONFIRMED        CONFIRMED       
##  3     1 Blan… Medr… chicken      Menu A      CONFIRMED        CONFIRMED       
##  4     1 Emaan Medr… PENDING      PENDING     PENDING          PENDING         
##  5     2 Blair Park  chicken      Menu C      CONFIRMED        CONFIRMED       
##  6     2 Nigel Webb  <NA>         <NA>        CANCELLED        CANCELLED       
##  7     3 Sine… Engl… PENDING      PENDING     PENDING          PENDING         
##  8     4 Ayra  Marks vegetarian   Menu B      PENDING          PENDING         
##  9     5 Atla… Conn… PENDING      PENDING     PENDING          PENDING         
## 10     5 Denz… Conn… fish         Menu B      CONFIRMED        CONFIRMED       
## # … with 20 more rows, and 1 more variable: attendance_golf <chr>
…
