…
Demo 2

From last class:

For each continent and year, how many countries have a “low” life expectancy? Let’s say life expectancy is “low” if it’s less than the median most recent life expectancy for each continent.

Plot the number of “low life expectancy” countries over time for each continent.

gapminder %>% 
  group_by(continent) %>% 
  mutate(median = median(lifeExp[year == 2007])) %>% 
  filter(lifeExp < median) %>% 
  count(continent, year)

## # A tibble: 60 x 3
## # Groups:   continent [5]
##    continent  year     n
##    <fct>     <int> <int>
##  1 Africa     1952    52
##  2 Africa     1957    50
##  3 Africa     1962    50
##  4 Africa     1967    47
##  5 Africa     1972    41
##  6 Africa     1977    38
##  7 Africa     1982    29
##  8 Africa     1987    28
##  9 Africa     1992    27
## 10 Africa     1997    26
## # … with 50 more rows
…
From last class Demo 3:

Get the maximum and minimum gdpPercap for all continents.

We’ll also add for each year. Today: modify plot (a) above so that the lines for each continent are contained within a band.

gapminder %>% 
  group_by(continent, year) %>% 
  summarise(max = max(gdpPercap),
            min = min(gdpPercap))

## `summarise()` regrouping output by 'continent' (override with `.groups` argument)

## # A tibble: 60 x 4
## # Groups:   continent [5]
##    continent  year    max   min
##    <fct>     <int>  <dbl> <dbl>
##  1 Africa     1952  4725.  299.
##  2 Africa     1957  5487.  336.
##  3 Africa     1962  6757.  355.
##  4 Africa     1967 18773.  413.
##  5 Africa     1972 21011.  464.
##  6 Africa     1977 21951.  502.
##  7 Africa     1982 17364.  462.
##  8 Africa     1987 11864.  390.
##  9 Africa     1992 13522.  411.
## 10 Africa     1997 14723.  312.
## # … with 50 more rows
…
Demo 4

From last class:

Filter gapminder to all entries that have experienced a drop in life expectancy. Hint: dplyr::lag().

Today: Was a drop in life expectancy just as likely for any year, or were some years more prone to see a drop than others? Is this true for all continents?

gapminder %>% 
  group_by(country) %>% 
  arrange(year) %>% 
  mutate(inc = lifeExp - lag(lifeExp)) %>% 
  filter(inc < 0)

## # A tibble: 102 x 7
## # Groups:   country [52]
##    country         continent  year lifeExp       pop gdpPercap     inc
##    <fct>           <fct>     <int>   <dbl>     <int>     <dbl>   <dbl>
##  1 China           Asia       1962    44.5 665770000      488. -6.05  
##  2 Cambodia        Asia       1972    40.3   7450606      422. -5.10  
##  3 Czech Republic  Europe     1972    70.3   9862158    13108. -0.0900
##  4 Netherlands     Europe     1972    73.8  13329874    18795. -0.0700
##  5 Slovak Republic Europe     1972    70.4   4593433     9674. -0.63  
##  6 Bulgaria        Europe     1977    70.8   8797022     7612. -0.09  
##  7 Cambodia        Asia       1977    31.2   6978607      525. -9.10  
##  8 El Salvador     Americas   1977    56.7   4282586     5139. -1.51  
##  9 Poland          Europe     1977    70.7  34621254     9508. -0.180 
## 10 Uganda          Africa     1977    50.4  11457758      844. -0.666 
## # … with 92 more rows
…
